Date:-Tue Nov 23 16:31:11 IST 2021
UserName:-Ram
Items:-[Menu [itemCode=2, food=Momos, quantity=2, price=190.0], Menu [itemCode=4, food=chaap, quantity=2, price=190.0]]
Total:-380.0
Date:-Tue Nov 23 16:31:11 IST 2021
0
UserName:- Amar
Items:- [Menu [itemCode=1, food=Rajma Chawal, quantity=2, price=150.0]]
Total:- 150.0
Date:-Tue Nov 23 17:45:58 IST 2021
0
Date:-Wed Nov 24 16:24:33 IST 2021
UserName:- Rach
Items:- [Menu [itemCode=4, food=Chaap, quantity=2, price=190.0]]
Total:- 190.0
0
Date:-Wed Nov 24 16:35:48 IST 2021
UserName:- Ram
Items:- [Menu [itemCode=1, food=Rajma Chawal, quantity=2, price=150.0], Menu [itemCode=4, food=Chaap, quantity=2, price=190.0], Menu [itemCode=5, food=Chilli Potato, quantity=1, price=250.0]]
Total:- 590.0
0
Date:-Wed Nov 24 16:52:07 IST 2021
UserName:- Ram
Items:- [Menu [itemCode=3, food=Red Thai Curry, quantity=2, price=180.0]]
Total:- 180.0
0
Date:-Wed Nov 24 16:54:04 IST 2021
UserName:- Neela
Items:- [Menu [itemCode=2, food=Momos, quantity=2, price=190.0]]
Total:- 190.0
0
Date:-Thu Nov 25 17:35:04 IST 2021
UserName:- Ray
Items:- [Menu [itemCode=4, food=Chaap, quantity=2, price=190.0], Menu [itemCode=5, food=Chilli Potato, quantity=1, price=250.0]]
Total:- 440.0
0
